version="1.10.*"
tags={
	"Balance"
	"Events"
	"Sound"
	"Technologies"
}
name="Eight Years' War of Resistance"
replace_path="map/strategicregions"
picture="thumbnail.png"
supported_version="1.10.8"
remote_file_id="1845721455"