﻿# Original by HK HOI4 Modder Ken80 10-10-2020 辛亥革命109周年
# Division template historical names system. Is a new method of naming the divisions based on the names-group assigned to it's template.
# If we run out of all historical names, the names will be assigned in the old way.
#
# Each group has a made up tag. Use it if you want to append more, or replace existing names with the extra txt files (modding).
#
# for_countries - lists all countries that can use it. If empty, or entire tag is missing, all countries in the world can use it.
#
# can_use - is a trigger that locks/unlocks the group under specific circumstances. The trigger is in a country scope.
#
# division_types - is a list of tokens to corresponding unit types. A player can in fact use any group of names for a div.template
#                  however this tag is a helper for an automated choice (for AI, or if the group must switch on it's own, because
#                  for example the current one is no longer available due to the can_use trigger saying so).
#                  In automated choice, the division template must have at least 1 of the following types for it to be chosen.
#
# fallback_name - Is going to be used if we run out of the scripted historical names. If you want to use the old division naming
#                 mechanics to be used for fallbacks, then just skip this option.
#
# unordered - It's a list of historical division names that did not have a number. Regardless if such names happened in history or not
#             this option is available here mainly for a mods.
#
# ordered - Is a list of all historical names. 
#           Numbers must start from 1 and up. 
#           Numbers can't repeat in one scope.
#           If you script the name for this group, at the same number (for example in a mod in another file), the name will be override.
#           All arguments between the brackets must be separated by spaces. Each argument is wrapped in "quotas".
#           1st argument = The name. It must contain either: 
#                          %d (for decimal number placement)
#                          %s (for string number placement - ROMAN numbers like XIV).
#           2nd argument is optional = A localizable text describing this historical division. The text will be visible in the tooltip
#                                      where you choose the historical division name.
#           3rd argument is optional = An URL preferably pointing to the WIKI. It's a future feature that is not currently working in
#                                      the current game version.
SIC_INF_01 = 
{
	name = "Infantry Divisions"

	for_countries = { SIC }

	can_use = { always = yes }

	division_types = { "infantry" }

	# Number reservation system will tie to another group.
	#link_numbering_with = { SIC_INF_01 }

	fallback_name = "Luchün Ti %d Shih"

	# Names with numbers (only one number per entry). 
	# It's okay to have gaps in numbering.
	ordered =
	{
	        104 = { "Luchün Ti 104 Shih" }      #川軍，（李家鈺部）
	        122 = { "Luchün Ti 122 Shih" }      #川軍，（孫震部）
	        123 = { "Luchün Ti 123 Shih" }      #川軍，（孫震部）
	        124 = { "Luchün Ti 124 Shih" }      #川軍，（孫震部）
	        125 = { "Luchün Ti 125 Shih" }      #川軍，（鄧錫侯部）
	        126 = { "Luchün Ti 126 Shih" }      #川軍，（鄧錫侯部）
	        127 = { "Luchün Ti 127 Shih" }      #川軍，（鄧錫侯部）
	        128 = { "Luchün Ti 128 Shih" }      #川軍，（鄧錫侯部）
	        133 = { "Luchün Ti 133 Shih" }      #川軍，（楊森部）
	        134 = { "Luchün Ti 134 Shih" }      #川軍，（楊森部）
	        144 = { "Luchün Ti 144 Shih" }      #川軍，（劉湘部）
	        145 = { "Luchün Ti 145 Shih" }      #川軍，（劉湘部）
	        146 = { "Luchün Ti 146 Shih" }      #川軍，（劉湘部）
	        147 = { "Luchün Ti 147 Shih" }      #川軍，（劉湘部）
	        148 = { "Luchün Ti 148 Shih" }      #川軍，（劉湘部）
	        149 = { "Luchün Ti 149 Shih" }      #川軍，（劉湘部）
	        150 = { "Luchün Ti 150 Shih" }      #川軍，（劉湘部）
	        161 = { "Luchün Ti 161 Shih" }      #川軍，（劉湘部）
	        162 = { "Luchün Ti 162 Shih" }      #川軍，（劉湘部）
	        163 = { "Luchün Ti 163 Shih" }      #川軍，（劉湘部）
	        164 = { "Luchün Ti 164 Shih" }      #川軍，（劉湘部）
	        178 = { "Luchün Ti 178 Shih" }      #川軍，（李家鈺部）
	        207 = { "Luchün Hsinpian Ti 7 Shih" }      #川軍，（劉湘部）
	        208 = { "Luchün Hsinpian Ti 8 Shih" }      #川軍，（劉湘部）
	        209 = { "Luchün Hsinpian Ti 9 Shih" }      #川軍，（鄧錫侯部）
	        213 = { "Luchün Hsinpian Ti 13 Shih" }      #川軍，（劉湘部）
	        214 = { "Luchün Hsinpian Ti 14 Shih" }      #川軍，（劉湘部）
	        215 = { "Luchün Hsinpian Ti 15 Shih" }      #川軍，（劉湘部）
	        216 = { "Luchün Hsinpian Ti 16 Shih" }      #川軍，（劉湘部）
	        217 = { "Luchün Hsinpian Ti 17 Shih" }      #川軍，（劉湘部）
	        218 = { "Luchün Hsinpian Ti 18 Shih" }      #川軍，（劉湘部）
	        221 = { "Luchün Hsinpian Ti 21 Shih" }      #川軍，（劉湘部）
	        225 = { "Luchün Hsinpian Ti 25 Shih" }      #川軍，（劉湘部）
                301 = { "Luchün Tsanpien Ti 1 Shih" }      #川軍，（孫震部）
	}
}

SIC_INF_02 =  
{
	name = "Garrison Divisions"

	for_countries = { SIC }

	can_use = { always = yes }

	division_types = { "infantry" }

	# Number reservation system will tie to another group.
	#link_numbering_with = { SIC_INF_01 }

	fallback_name = "Tuli Ti %d Lü"

	# Names with numbers (only one number per entry). 
	# It's okay to have gaps in numbering.
	ordered =
	{
		11 = { "Tuli Ti %d Lü" }      #川軍，（劉湘部）
		12 = { "Tuli Ti %d Lü" }      #川軍，（劉湘部）
		13 = { "Tuli Ti %d Lü" }      #川軍，（劉湘部）
		14 = { "Tuli Ti %d Lü" }      #川軍，（劉湘部）
		15 = { "Tuli Ti %d Lü" }      #川軍，（劉湘部）
		16 = { "Tuli Ti %d Lü" }      #川軍，（劉湘部）
		17 = { "Tuli Ti %d Lü" }      #川軍，（劉湘部）
	}
}