﻿army = {
	gfx = GFX_theatre_army_shield
	
	icon = {
		#Example of icon script, corresponding to the frame index in the .dds files
		#color_override = no
		#name = "EQUAL_ICON"
		#available = 
		#{
		#	tag = CHI
		#}
	}
	icon = {
	}
	icon = {
	}
	icon = {
	}
	icon = {
	}
	icon = {
	}
	icon = {
	}
	icon = {
	}
	icon = {
	}
	icon = {
	}
	icon = {
	}
	icon = {
	}
	icon = {
	}
	icon = {
	}
	icon = {
		color_override = no
		name = "4. Armee"
		available = 
		{
			has_dlc = "Waking the Tiger"
			tag = GER
		}
	}
	icon = {
		color_override = no
		name = "16. Armee"
		available = 
		{
			has_dlc = "Waking the Tiger"
			tag = GER
		}
	}
	icon = {
		color_override = no
		name = "1. Panzerarmee"
		available = 
		{
			has_dlc = "Waking the Tiger"
			tag = GER
		}
	}
	icon = {
		color_override = no
		name = "V. Armeekorps"
		available = 
		{
			has_dlc = "Waking the Tiger"
			tag = GER
		}
	}
	icon = {
		color_override = no
		name = "6. Armee"
		available = 
		{
			has_dlc = "Waking the Tiger"
			tag = GER
		}
	}
	icon = {
		color_override = no
		name = "7. Armee"
		available = 
		{
			has_dlc = "Waking the Tiger"
			tag = GER
		}
	}
	icon = {
		color_override = no
		name = "2. Armee"
		available = 
		{
			has_dlc = "Waking the Tiger"
			tag = GER
		}
	}
	icon = {
		color_override = no
		name = "2. Panzerarmee"
		available = 
		{
			has_dlc = "Waking the Tiger"
			tag = GER
		}
	}
	icon = {
		color_override = no
		name = "10. Armee"
		available = 
		{
			has_dlc = "Waking the Tiger"
			tag = GER
		}
	}
	icon = {
		color_override = no
		name = "11. Armee"
		available = 
		{
			has_dlc = "Waking the Tiger"
			tag = GER
		}
	}
	icon = {
		color_override = no
		name = "14. Armee"
		available = 
		{
			has_dlc = "Waking the Tiger"
			tag = GER
		}
	}
	icon = {
		color_override = no
		name = "17. Armee"
		available = 
		{
			has_dlc = "Waking the Tiger"
			tag = GER
		}
	}
	icon = {
		color_override = no
		name = "18. Armee"
		available = 
		{
			has_dlc = "Waking the Tiger"
			tag = GER
		}
	}
	icon = {
		color_override = no
		name = "Panzergruppe H"
		available = 
		{
			has_dlc = "Waking the Tiger"
			tag = GER
		}
	}
	icon = {
		color_override = no
		name = "Panzergruppe E"
		available = 
		{
			has_dlc = "Waking the Tiger"
			tag = GER
		}
	}
	icon = {
		color_override = no
		name = "Panzergruppe Z"
		available = 
		{
			has_dlc = "Waking the Tiger"
			tag = GER
		}
	}
	icon = {
		color_override = no
		name = "Panzergruppe A"
		available = 
		{
			has_dlc = "Waking the Tiger"
			tag = GER
		}
	}
	icon = {
		color_override = no
		name = "Panzergruppe D"
		available = 
		{
			has_dlc = "Waking the Tiger"
			tag = GER
		}
	}
	icon = {
		color_override = no
		name = "First Army"
		available = 
		{
			has_dlc = "Waking the Tiger"
			tag = ENG
		}
	}
	icon = {
		color_override = no
		name = "Second Army"
		available = 
		{
			has_dlc = "Waking the Tiger"
			tag = ENG
		}
	}
	icon = {
		color_override = no
		name = "Eighth Army"
		available = 
		{
			has_dlc = "Waking the Tiger"
			tag = ENG
		}
	}
	icon = {
		color_override = no
		name = "Tenth Army"
		available = 
		{
			has_dlc = "Waking the Tiger"
			tag = ENG
		}
	}
	icon = {
		color_override = no
		name = "Fourteenth Army"
		available = 
		{
			has_dlc = "Waking the Tiger"
			tag = ENG
		}
	}
	icon = {
		color_override = no
		name = "Northern Command"
		available = 
		{
			has_dlc = "Waking the Tiger"
			tag = ENG
		}
	}
	icon = {
		color_override = no
		name = "Eastern Command"
		available = 
		{
			has_dlc = "Waking the Tiger"
			tag = ENG
		}
	}
	icon = {
		color_override = no
		name = "Western Command"
		available = 
		{
			has_dlc = "Waking the Tiger"
			tag = ENG
		}
	}
	icon = {
		color_override = no
		name = "Southern Command"
		available = 
		{
			has_dlc = "Waking the Tiger"
			tag = ENG
		}
	}
	icon = {
		color_override = no
		name = "Aldershot Command"
		available = 
		{
			has_dlc = "Waking the Tiger"
			tag = ENG
		}
	}
	icon = {
		color_override = no
		name = "Scottish Command"
		available = 
		{
			has_dlc = "Waking the Tiger"
			tag = ENG
		}
	}
	icon = {
		color_override = no
		name = "8th Army"
		available = 
		{
			has_dlc = "Waking the Tiger"
			tag = USA
		}
	}
	icon = {
		color_override = no
		name = "1st Army"
		available = 
		{
			has_dlc = "Waking the Tiger"
			tag = USA
		}
	}
	icon = {
		color_override = no
		name = "2nd Army"
		available = 
		{
			has_dlc = "Waking the Tiger"
			tag = USA
		}
	}
	icon = {
		color_override = no
		name = "3rd Army"
		available = 
		{
			has_dlc = "Waking the Tiger"
			tag = USA
		}
	}
	icon = {
		color_override = no
		name = "5th Army"
		available = 
		{
			has_dlc = "Waking the Tiger"
			tag = USA
		}
	}
	icon = {
		color_override = no
		name = "6th Army"
		available = 
		{
			has_dlc = "Waking the Tiger"
			tag = USA
		}
	}
	icon = {
		color_override = no
		name = "7th Army"
		available = 
		{
			has_dlc = "Waking the Tiger"
			tag = USA
		}
	}
	icon = {
		color_override = no
		name = "9th Army"
		available = 
		{
			has_dlc = "Waking the Tiger"
			tag = USA
		}
	}
	icon = {
		color_override = no
		name = "1re Armée"
		available = 
		{
			has_dlc = "Waking the Tiger"
			tag = FRA
		}
	}
	icon = {
		color_override = no
		name = "Forces françaises libres"
		available = 
		{
			has_dlc = "Waking the Tiger"
			tag = FRA
		}
	}
	icon = {
		color_override = no
		name = "2e Armée"
		available = 
		{
			has_dlc = "Waking the Tiger"
			tag = FRA
		}
	}
	icon = {
		color_override = no
		name = "1. Allied Army"
		available = 
		{
			has_dlc = "Waking the Tiger"
			has_government = democratic
		}
	}
	icon = {
		color_override = no
		name = "1. Homeland Defense Army"
		available = 
		{
			has_dlc = "Waking the Tiger"
			has_government = fascism
		}
	}
	icon = {
		color_override = no
		name = "Sunflower Defense Corps"
		available = 
		{
			has_dlc = "Waking the Tiger"
			has_government = neutrality
		}
	}
	icon = {
		color_override = no
		name = "I. Army"
		available = 
		{
			has_dlc = "Waking the Tiger"
			NOT = 
			{
				tag = FRA
				tag = GER
				tag = ENG
				tag = USA
				tag = SOV
			}
		}
	}
	icon = {
		color_override = no
		name = "II. Army"
		available = 
		{
			has_dlc = "Waking the Tiger"
			NOT = 
			{
				tag = FRA
				tag = GER
				tag = ENG
				tag = USA
				tag = SOV
			}
		}
	}
	icon = {
		color_override = no
		name = "III. Army"
		available = 
		{
			has_dlc = "Waking the Tiger"
			NOT = 
			{
				tag = FRA
				tag = GER
				tag = ENG
				tag = USA
				tag = SOV
			}
		}
	}
	icon = 
	{
		color_override = no
		name = "1. Celestial Penetration Army"
		available = 
		{
			has_dlc = "Waking the Tiger"
			has_government = fascism
		}
	}
	icon = {
		color_override = no
		name = "1. Liberation Army"
		available = 
		{
			has_dlc = "Waking the Tiger"
			has_government = communism
		}
	}
	icon = {
		color_override = no
		name = "IV. Army"
		available = 
		{
			has_dlc = "Waking the Tiger"
			NOT = 
			{
				tag = FRA
				tag = GER
				tag = ENG
				tag = USA
				tag = SOV
			}
		}
	}
	icon = {
		color_override = no
		name = "V. Army"
		available = 
		{
			has_dlc = "Waking the Tiger"
			NOT = 
			{
				tag = FRA
				tag = GER
				tag = ENG
				tag = USA
				tag = SOV
			}
		}
	}
	icon = {
		color_override = no
		name = "7. Guards"
		available = 
		{
			has_dlc = "Waking the Tiger"
			tag = SOV
		}
	}
	icon = {
		color_override = no
		name = "41. Guards"
		available = 
		{
			has_dlc = "Waking the Tiger"
			tag = SOV
		}
	}
	icon = {
		color_override = no
		name = "90. Tanks"
		available = 
		{
			has_dlc = "Waking the Tiger"
			tag = SOV
		}
	}
	icon = {
		color_override = no
		name = "8. Artillery"
		available = 
		{
			has_dlc = "Waking the Tiger"
			tag = SOV
		}
	}
	icon = {
		color_override = no
		name = "1443. Artillery"
		available = 
		{
			has_dlc = "Waking the Tiger"
			tag = SOV
		}
	}
	icon = {
		color_override = no
		name = "76. Tanks"
		available = 
		{
			has_dlc = "Waking the Tiger"
			tag = SOV
		}
	}
	icon = {
		color_override = no
		name = "3. Guards Mechanized"
		available = 
		{
			has_dlc = "Waking the Tiger"
			tag = SOV
		}
	}
	icon = {
		color_override = no
		name = "3. Tanks"
		available = 
		{
			has_dlc = "Waking the Tiger"
			tag = SOV
		}
	}
	icon = {
		color_override = no
		name = "213. Tanks"
		available = {
			has_dlc = "Waking the Tiger"
			tag = SOV
		}
	}
	icon = {
		color_override = no
		name = "8. Mechanized"
		available = 
		{
			has_dlc = "Waking the Tiger"
			tag = SOV
		}
	}
	icon = { #MODDED
		color_override = no #MODDED
		name = "National Revolutionary Army" #MODDED
		available = 
		{
			OR = {
				is_warlord = yes
				tag = CHI
			}
			NOT = {
				has_completed_focus = CHI_support_kmt_opposition_focus #MODDED
			}
			NOT = {
				OR = {
					has_government = n_socialism
					has_government = communism
					has_completed_focus = CHI_leaves_the_KMT #MODDED
				}				
			}
		}
	}
	icon = {
		color_override = no
		name = "Imperial Japanese Army" #MODDED
		available = 
		{
			tag = JAP #MODDED
		}
	}	 #MODDED
}

army_group = {
	gfx = GFX_theatre_army_group_shield
	
	icon = {
	}
	icon = {
		color_override = no
		available = 
		{
			has_dlc = "Waking the Tiger"
		}
	}
	icon = {
		color_override = no
		name = "15. Army Group"
		available = 
		{
			has_dlc = "Waking the Tiger"
		}
	}
	icon = {
		color_override = no
		name = "12. Army Group"
		available = 
		{
			has_dlc = "Waking the Tiger"
		}
	}
	icon = {
		color_override = no
		name = "6. Army Group"
		available = 
		{
			has_dlc = "Waking the Tiger"
		}
	}
	icon = {
		color_override = no
		available = 
		{
			has_dlc = "Waking the Tiger"
		}
	}
	icon = { #MODDED
		color_override = no #MODDED
		name = "Kuomintang"
		available = 
		{
			OR = {
				is_warlord = yes
				tag = CHI
			}
			NOT = {
				has_completed_focus = CHI_support_kmt_opposition_focus
			}
			NOT = {
				OR = {
					has_government = n_socialism
					has_government = communism
					has_completed_focus = CHI_leaves_the_KMT
				}				
			}
		}
	}
	icon = {
		color_override = no
		name = "Rising Sun"
		available = 
		{
			tag = JAP
		}
	}
	icon = {
		color_override = no
		name = "Chinese Communist Party Emblem" #MODDED
		available = {
			tag = PRC
			has_government = communism #MODDED
		}
	}
}

fleet = {
	gfx = GFX_theatre_task_force_shield
	
	icon = {
	}
	icon = {
	}
	icon = {
	}
	icon = {
	}
	icon = {
	}
	icon = {
	}
	icon = {
	}
	icon = {
	}
	icon = {
	}
	icon = {
	}
	icon = {
	}
	icon = {
	}
	icon = {
	}
	icon = {
	}
	icon = {
	}
	icon = {
	}
	icon = {
	}
	icon = {
	}
	icon = {
	}
	icon = {
	}
	icon = {
	}
	icon = {
	}
	icon = {
	}
	icon = {
	}
	icon = {
	}
	icon = {
	}
	icon = {
	}
	icon = {
	}
	icon = {
	}
	icon = {
	}
	icon = {
	}
}

task_force = {
	gfx = GFX_theatre_task_force_shield
	
	icon = {
	}
	icon = {
	}
	icon = {
	}
	icon = {
	}
	icon = {
	}
	icon = {
	}
	icon = {
	}
	icon = {
	}
	icon = {
	}
	icon = {
	}
	icon = {
	}
	icon = {
	}
	icon = {
	}
	icon = {
	}
	icon = {
	}
	icon = {
	}
	icon = {
	}
	icon = {
	}
	icon = {
	}
	icon = {
	}
	icon = {
	}
	icon = {
	}
	icon = {
	}
	icon = {
	}
	icon = {
	}
	icon = {
	}
	icon = {
	}
	icon = {
	}
	icon = {
	}
	icon = {
	}
	icon = {
	}
}

naval_equipment_role = {
	gfx = GFX_naval_equipment_role_icons
	
	icon = {
		color_override = no
		name = "Battery"
	}
	icon = {
		color_override = no
		name = "Shield"
	}
	icon = {
		color_override = no
		name = "Spotter"
	}
	icon = {
		color_override = no
		name = "Minelayer"
	}
	icon = {
		color_override = no
		name = "Minesweeper"
	}
	icon = {
		color_override = no
		name = "Skull"
	}
	icon = {
		color_override = no
		name = "Airplane"
	}
	icon = {
		color_override = no
		name = "Crab"
	}
}
