
state={
	id = 328
	name="STATE_328"

	history={
		owner = MAN
		add_core_of = MAN
		add_core_of = CHI
		
		buildings = {
			infrastructure = 7
			air_base = 6
			arms_factory = 2
			industrial_complex = 2
		}
		victory_points = {
			4572 10
		}
		
		1939.1.1 = {
			owner = MAN

		}

	}

	provinces={
		946 1567 3932 3947 4503 4572 4633 6947 7523 7652 7663 9883 9913 9928 11744 11850 11862 11864
	}
	manpower=5236266
	buildings_max_level_factor=1.000
	state_category=large_city
}
