
state={
	id = 412
	name="STATE_412"
	manpower = 918619
	resources={
		oil=12
	}


	state_category = rural
	history={
		owner = PER
		victory_points = {
			8117 1 
		}
		victory_points = {
			7982 3 
		}
		buildings = {
			infrastructure = 2
			7982 = {
				naval_base = 4
			}
			12832 = {
				naval_base = 2
			}
		}
		add_core_of = PER
	}

	provinces={
		4959 7982 10797 12832 
	}
}
