
state = {
	id = 776
	name="STATE_776" # Benin/Dahomey
	manpower = 1351563
	
	state_category = pastoral
	history={
		owner = FRA
		add_core_of = DAH
		victory_points = {
			10919 1
		}
		buildings = {
			infrastructure = 3
			10919 = {
				naval_base = 1
			}
		}
	}

	provinces={
		10919 12874 12762
	}
}
