state={
	id = 808
	name="STATE_808"
	provinces={
		1423 4223 4284 4341 7303 7331 12133 
	}
	resources={
		rubber=50.000
	}
	history={
		owner = FIC
		add_core_of = FIC
		add_core_of = VIN
		victory_points = {
			12133 4
		}
		buildings = {
			infrastructure = 3
		}
	}
	manpower=1095741
	buildings_max_level_factor=1.000
	state_category=rural
}
