state={
	id = 810
	name="STATE_810"
	provinces={
		10330 10356 10456 
	}
	history={
		owner = FIC
		add_core_of = FIC
		add_core_of = LAO
		buildings = {
			infrastructure = 2
		}
	}
	manpower=59872
	buildings_max_level_factor=1.000
	state_category=pastoral
}
