state={
	id = 835
	name="STATE_835"
	provinces={
		1508 3978 4514 6988 10429 10499 11903 12469 12478 
	}
	manpower=1724174
	buildings_max_level_factor=1.000
	state_category=town
	history={
		owner = MAN
		add_core_of = MAN
		add_core_of = CHI
		
		buildings = {
			infrastructure = 3

		}

	}
	buildings_max_level_factor=1.000
}
