state = {
	id = 849
	name="STATE_849"
	resources={
		steel=10.000
	}
	
	history={
		owner = JAP
		add_core_of = JAP
		buildings = {
			arms_factory = 1
			industrial_complex = 1
			infrastructure = 4
			fuel_silo = 2
			9859 = {
				naval_base = 6
			}

		}
		victory_points = {
			6994 5 
		}
	}
	provinces={
		1063 1165 3848 6870 6873 6994 9807 9859 9865 11847 12056 
	}
	manpower=2658741
	buildings_max_level_factor=1.250
	state_category=large_city
}
