state={
	id = 877
	name="STATE_877"
	provinces={
		1302 4397 7280 9988 10016 11909 11936 12297 
	}
	history={
		owner = FIC
		add_core_of = FIC
		add_core_of = VIN
		victory_points = {
			4397 1
		}
		buildings = {
			infrastructure = 4
			4397 = {
				naval_base = 4
			}
		}
	}
	manpower=3875624
	buildings_max_level_factor=1.000
	state_category=rural
}
